alabaster==0.7.11
appdirs==1.4.3
atomicwrites==1.2.1
attrs==18.2.0
Babel==2.6.0
black==18.6b4
bumpversion==0.5.3
certifi==2018.8.24
chardet==3.0.4
click==6.7
coverage==4.5.1
docutils==0.14
flake8==3.5.0
idna==2.7
imagesize==1.1.0
isort==4.3.4
Jinja2==2.10
MarkupSafe==1.0
mccabe==0.6.1
mock==2.0.0
more-itertools==4.3.0
packaging==17.1
pbr==4.2.0
pluggy==0.7.1
py==1.6.0
pycodestyle==2.3.1
pyflakes==1.6.0
Pygments==2.2.0
pyparsing==2.2.1
pytest==3.8.1
pytest-cov==2.6.0
pytest-spec==1.1.0
pytz==2018.5
requests==2.19.1
six==1.11.0
snowballstemmer==1.2.1
Sphinx==1.8.1
sphinx-autodoc-typehints==1.3.0
sphinx-rtd-theme==0.4.1
sphinxcontrib-websupport==1.1.0
toml==0.9.6
urllib3==1.23
